0.356866	(-0.489151,-0.342925)	[2]	|010101,101010> + |101010,010101>
0.202914	(-0.368847,-0.258585)	[6]	|010011,101100> + |101001,010110> + |110100,001011> + |011010,100101> + |001101,110010> + |100110,011001>
0.202914	(-0.368847,-0.258585)	[6]	|001011,110100> + |100101,011010> + |110010,001101> + |011001,100110> + |101100,010011> + |010110,101001>
0.0311874	(-0.144604,-0.101376)	[6]	|110100,101010> + |011010,010101> + |001101,101010> + |100110,010101> + |010011,101010> + |101001,010101>
0.0311874	(-0.144604,-0.101376)	[6]	|101010,110100> + |010101,011010> + |101010,001101> + |010101,100110> + |101010,010011> + |010101,101001>
0.0311874	(-0.144604,-0.101376)	[6]	|010110,101010> + |001011,010101> + |100101,101010> + |110010,010101> + |011001,101010> + |101100,010101>
0.0311874	(-0.144604,-0.101376)	[6]	|010101,101100> + |101010,010110> + |010101,001011> + |101010,100101> + |010101,110010> + |101010,011001>
0.0178962	(-0.109539,-0.076794)	[6]	|000111,111000> + |100011,011100> + |110001,001110> + |111000,000111> + |011100,100011> + |001110,110001>
0.0116859	(-0.088516,-0.0620552)	[6]	|110010,101100> + |011001,010110> + |101100,001011> + |010110,100101> + |001011,110010> + |100101,011001>
0.0116859	(-0.088516,-0.0620552)	[6]	|010011,110100> + |101001,011010> + |110100,001101> + |011010,100110> + |001101,010011> + |100110,101001>
0.0116859	(-0.088516,-0.0620552)	[6]	|001101,110100> + |100110,011010> + |010011,001101> + |101001,100110> + |110100,010011> + |011010,101001>
0.0116859	(-0.088516,-0.0620552)	[6]	|001011,101100> + |100101,010110> + |110010,001011> + |011001,100101> + |101100,110010> + |010110,011001>
0.00469198	(-0.0560878,-0.039321)	[6]	|100110,111000> + |010011,011100> + |101001,001110> + |110100,000111> + |011010,100011> + |001101,110001>
0.00469198	(-0.0560878,-0.039321)	[6]	|100011,101100> + |110001,010110> + |111000,001011> + |011100,100101> + |001110,110010> + |000111,011001>
0.00469198	(-0.0560878,-0.039321)	[6]	|001011,111000> + |100101,011100> + |110010,001110> + |011001,000111> + |101100,100011> + |010110,110001>
0.00469198	(-0.0560878,-0.039321)	[6]	|000111,110100> + |100011,011010> + |110001,001101> + |111000,100110> + |011100,010011> + |001110,101001>
0.00200361	(-0.0366519,-0.0256952)	[6]	|101001,110100> + |110100,011010> + |011010,001101> + |001101,100110> + |100110,010011> + |010011,101001>
0.00200361	(-0.0366519,-0.0256952)	[6]	|011010,110100> + |001101,011010> + |100110,001101> + |010011,100110> + |101001,010011> + |110100,101001>
0.00200361	(-0.0366519,-0.0256952)	[6]	|011001,101100> + |101100,010110> + |010110,001011> + |001011,100101> + |100101,110010> + |110010,011001>
0.00200361	(-0.0366519,-0.0256952)	[6]	|010110,101100> + |001011,010110> + |100101,001011> + |110010,100101> + |011001,110010> + |101100,011001>
0.00136752	(-0.0302801,-0.0212282)	[6]	|101100,101010> + |010110,010101> + |001011,101010> + |100101,010101> + |110010,101010> + |011001,010101>
0.00136752	(-0.0302801,-0.0212282)	[6]	|101010,101100> + |010101,010110> + |101010,001011> + |010101,100101> + |101010,110010> + |010101,011001>
0.00136752	(-0.0302801,-0.0212282)	[6]	|011010,101010> + |001101,010101> + |100110,101010> + |010011,010101> + |101001,101010> + |110100,010101>
0.00136752	(-0.0302801,-0.0212282)	[6]	|010101,110100> + |101010,011010> + |010101,001101> + |101010,100110> + |010101,010011> + |101010,101001>
0.00110809	(-0.027257,-0.0191088)	[6]	|110100,101100> + |011010,010110> + |001101,001011> + |100110,100101> + |010011,110010> + |101001,011001>
0.00110809	(-0.027257,-0.0191088)	[6]	|110010,110100> + |011001,011010> + |101100,001101> + |010110,100110> + |001011,010011> + |100101,101001>
0.00110809	(-0.027257,-0.0191088)	[6]	|101100,110100> + |010110,011010> + |001011,001101> + |100101,100110> + |110010,010011> + |011001,101001>
0.00110809	(-0.027257,-0.0191088)	[6]	|001101,101100> + |100110,010110> + |010011,001011> + |101001,100101> + |110100,110010> + |011010,011001>
0.000928172	(-0.0249462,-0.0174888)	[6]	|100110,110100> + |010011,011010> + |101001,001101> + |110100,100110> + |011010,010011> + |001101,101001>
0.000928172	(-0.0249462,-0.0174888)	[6]	|100101,101100> + |110010,010110> + |011001,001011> + |101100,100101> + |010110,110010> + |001011,011001>
0.000830199	(-0.0235929,-0.0165401)	[6]	|111000,101010> + |011100,010101> + |001110,101010> + |000111,010101> + |100011,101010> + |110001,010101>
0.000830199	(-0.0235929,-0.0165401)	[6]	|101010,111000> + |010101,011100> + |101010,001110> + |010101,000111> + |101010,100011> + |010101,110001>
0.000671554	(-0.0212193,-0.014876)	[6]	|011010,101100> + |001101,010110> + |100110,001011> + |010011,100101> + |101001,110010> + |110100,011001>
0.000671554	(-0.0212193,-0.014876)	[6]	|011001,110100> + |101100,011010> + |010110,001101> + |001011,100110> + |100101,010011> + |110010,101001>
0.000500901	(-0.0183259,-0.0128476)	[6]	|110001,101100> + |111000,010110> + |011100,001011> + |001110,100101> + |000111,110010> + |100011,011001>
0.000500901	(-0.0183259,-0.0128476)	[6]	|100101,111000> + |110010,011100> + |011001,001110> + |101100,000111> + |010110,100011> + |001011,110001>
0.000500901	(-0.0183259,-0.0128476)	[6]	|100011,110100> + |110001,011010> + |111000,001101> + |011100,100110> + |001110,010011> + |000111,101001>
0.000500901	(-0.0183259,-0.0128476)	[6]	|010110,111000> + |001011,011100> + |100101,001110> + |110010,000111> + |011001,100011> + |101100,110001>
0.000500901	(-0.0183259,-0.0128476)	[6]	|010011,111000> + |101001,011100> + |110100,001110> + |011010,000111> + |001101,100011> + |100110,110001>
0.000500901	(-0.0183259,-0.0128476)	[6]	|001110,110100> + |000111,011010> + |100011,001101> + |110001,100110> + |111000,010011> + |011100,101001>
0.000500901	(-0.0183259,-0.0128476)	[6]	|001101,111000> + |100110,011100> + |010011,001110> + |101001,000111> + |110100,100011> + |011010,110001>
0.000500901	(-0.0183259,-0.0128476)	[6]	|000111,101100> + |100011,010110> + |110001,001011> + |111000,100101> + |011100,110010> + |001110,011001>
0.000289167	(-0.013924,-0.0097616)	[6]	|011100,101010> + |001110,010101> + |000111,101010> + |100011,010101> + |110001,101010> + |111000,010101>
0.000289167	(-0.013924,-0.0097616)	[6]	|010101,111000> + |101010,011100> + |010101,001110> + |101010,000111> + |010101,100011> + |101010,110001>
0.000222439	(-0.0122122,-0.00856155)	[6]	|101001,101100> + |110100,010110> + |011010,001011> + |001101,100101> + |100110,110010> + |010011,011001>
0.000222439	(-0.0122122,-0.00856155)	[6]	|100110,101100> + |010011,010110> + |101001,001011> + |110100,100101> + |011010,110010> + |001101,011001>
0.000222439	(-0.0122122,-0.00856155)	[6]	|100101,110100> + |110010,011010> + |011001,001101> + |101100,100110> + |010110,010011> + |001011,101001>
0.000222439	(-0.0122122,-0.00856155)	[6]	|010110,110100> + |001011,011010> + |100101,001101> + |110010,100110> + |011001,010011> + |101100,101001>
9.67438e-05	(-0.00805382,-0.00564623)	[2]	|101010,101010> + |010101,010101>
7.93783e-05	(-0.00729526,-0.00511443)	[6]	|100011,111000> + |110001,011100> + |111000,001110> + |011100,000111> + |001110,100011> + |000111,110001>
7.93783e-05	(-0.00729526,-0.00511443)	[6]	|001110,111000> + |000111,011100> + |100011,001110> + |110001,000111> + |111000,100011> + |011100,110001>
6.78088e-05	(-0.00674269,-0.00472704)	[6]	|110100,110100> + |011010,011010> + |001101,001101> + |100110,100110> + |010011,010011> + |101001,101001>
6.78088e-05	(-0.00674269,-0.00472704)	[6]	|101100,101100> + |010110,010110> + |001011,001011> + |100101,100101> + |110010,110010> + |011001,011001>
5.56098e-05	(-0.00610612,-0.00428077)	[6]	|111000,101100> + |011100,010110> + |001110,001011> + |000111,100101> + |100011,110010> + |110001,011001>
5.56098e-05	(-0.00610612,-0.00428077)	[6]	|110010,111000> + |011001,011100> + |101100,001110> + |010110,000111> + |001011,100011> + |100101,110001>
5.56098e-05	(-0.00610612,-0.00428077)	[6]	|110001,110100> + |111000,011010> + |011100,001101> + |001110,100110> + |000111,010011> + |100011,101001>
5.56098e-05	(-0.00610612,-0.00428077)	[6]	|101100,111000> + |010110,011100> + |001011,001110> + |100101,000111> + |110010,100011> + |011001,110001>
5.56098e-05	(-0.00610612,-0.00428077)	[6]	|101001,111000> + |110100,011100> + |011010,001110> + |001101,000111> + |100110,100011> + |010011,110001>
5.56098e-05	(-0.00610612,-0.00428077)	[6]	|011100,110100> + |001110,011010> + |000111,001101> + |100011,100110> + |110001,010011> + |111000,101001>
5.56098e-05	(-0.00610612,-0.00428077)	[6]	|011010,111000> + |001101,011100> + |100110,001110> + |010011,000111> + |101001,100011> + |110100,110001>
5.56098e-05	(-0.00610612,-0.00428077)	[6]	|001110,101100> + |000111,010110> + |100011,001011> + |110001,100101> + |111000,110010> + |011100,011001>
1.36315e-05	(-0.00302316,-0.00211943)	[6]	|111000,110100> + |011100,011010> + |001110,001101> + |000111,100110> + |100011,010011> + |110001,101001>
1.36315e-05	(-0.00302316,-0.00211943)	[6]	|110100,111000> + |011010,011100> + |001101,001110> + |100110,000111> + |010011,100011> + |101001,110001>
1.36315e-05	(-0.00302316,-0.00211943)	[6]	|011100,101100> + |001110,010110> + |000111,001011> + |100011,100101> + |110001,110010> + |111000,011001>
1.36315e-05	(-0.00302316,-0.00211943)	[6]	|011001,111000> + |101100,011100> + |010110,001110> + |001011,000111> + |100101,100011> + |110010,110001>
2.73153e-06	(-0.0013533,-0.000948746)	[6]	|110001,111000> + |111000,011100> + |011100,001110> + |001110,000111> + |000111,100011> + |100011,110001>
2.73153e-06	(-0.0013533,-0.000948746)	[6]	|011100,111000> + |001110,011100> + |000111,001110> + |100011,000111> + |110001,100011> + |111000,110001>
3.21448e-07	(-0.000464243,-0.000325463)	[6]	|111000,111000> + |011100,011100> + |001110,001110> + |000111,000111> + |100011,100011> + |110001,110001>
[(-26.048130886091453, 'R0:N6:S0:1')]

